{
    "KPackageStructure": "Plasma/Applet",
    "KPlugin": {
        "Authors": [
            {
                "Email": "damu@iki.fi",
                "Name": "Petri Damstén",
                "Name[ar]": "Petri Damstén",
                "Name[az]": "Petri Damstén",
                "Name[be]": "Petri Damstén",
                "Name[bg]": "Petri Damstén",
                "Name[ca@valencia]": "Petri Damstén",
                "Name[ca]": "Petri Damstén",
                "Name[cs]": "Petri Damstén",
                "Name[da]": "Petri Damstén",
                "Name[de]": "Petri Damstén",
                "Name[en_GB]": "Petri Damstén",
                "Name[eo]": "Petri Damstén",
                "Name[es]": "Petri Damstén",
                "Name[et]": "Petri Damstén",
                "Name[eu]": "Petri Damstén",
                "Name[fi]": "Petri Damstén",
                "Name[fr]": "Petri Damstén",
                "Name[hu]": "Petri Damstén",
                "Name[ia]": "Petri Damstén",
                "Name[id]": "Petri Damstén",
                "Name[ie]": "Petri Damstén",
                "Name[is]": "Petri Damstén",
                "Name[it]": "Petri Damstén",
                "Name[ja]": "Petri Damstén",
                "Name[ka]": "პეტრი დამშტენი",
                "Name[ko]": "Petri Damstén",
                "Name[lt]": "Petri Damstén",
                "Name[nl]": "Petri Damstén",
                "Name[nn]": "Petri Damstén",
                "Name[pl]": "Petri Damstén",
                "Name[pt]": "Petri Damstén",
                "Name[pt_BR]": "Petri Damstén",
                "Name[ro]": "Petri Damstén",
                "Name[ru]": "Petri Damstén",
                "Name[sk]": "Petri Damstén",
                "Name[sl]": "Petri Damstén",
                "Name[sv]": "Petri Damstén",
                "Name[ta]": "பெட்ரி டாம்ஸ்டென்",
                "Name[tr]": "Petri Damstén",
                "Name[uk]": "Petri Damstén",
                "Name[vi]": "Petri Damstén",
                "Name[x-test]": "xxPetri Damsténxx",
                "Name[zh_CN]": "Petri Damstén",
                "Name[zh_TW]": "Petri Damstén"
            }
        ],
        "BugReportUrl": "https://bugs.kde.org/enter_bug.cgi?product=plasmashell&component=Show%20Desktop/Minimize%20All",
        "Category": "Windows and Tasks",
        "Description": "Temporarily shows the desktop by moving windows away",
        "Description[ar]": "يظهر سطح المكتب مؤقتاً بتحريك كل النوافذ للجنب",
        "Description[az]": "Pəncərələri kənara çəkməklə iş masasını müvəqqəti olaraq göstərir",
        "Description[be]": "Часова паказвае працоўны стол, прыбіраючы вокны",
        "Description[bg]": "Временно разкрива работния плот, като премества прозорците настрани",
        "Description[ca@valencia]": "Mostra temporalment l'escriptori en moure les finestres cap a fora",
        "Description[ca]": "Mostra temporalment l'escriptori en moure les finestres cap a fora",
        "Description[cs]": "Dočasně zobrazí pracovní plochu posunutím oken stranou",
        "Description[de]": "Zeigt vorübergehend die Arbeitsfläche an, indem alle Fenster beiseite geschoben werden",
        "Description[en_GB]": "Temporarily shows the desktop by moving windows away",
        "Description[eo]": "Provizore montras la labortablon formovante fenestrojn",
        "Description[es]": "Muestra el escritorio temporalmente apartando las ventanas",
        "Description[eu]": "Mahaigaina aldi batez erakusten du leihoak kanporantz mugituz",
        "Description[fi]": "Näyttää hetkellisesti työpöydän siirtämällä ikkunoita sivuun",
        "Description[fr]": "Affiche temporairement le bureau en déplaçant toutes les fenêtres sur le côté",
        "Description[ia]": "Temporaneemente monstra le scriptorio per remover fenestras ",
        "Description[id]": "Menampilkan desktop sekejap ketika sedang menggerakkan jendela",
        "Description[is]": "Sýnir skjáborðið í smástund með því að færa frá opna glugga",
        "Description[it]": "Mostra temporaneamente il desktop allontanando le finestre",
        "Description[ja]": "ウィンドウを一時的に移動させてデスクトップを表示",
        "Description[ka]": "დროებით გაჩვენებთ სამუშაო მაგიდას ღია ფანჯრების ეკრანის კუთხეებში გადატანით",
        "Description[ko]": "창을 이동하여 임시로 바탕 화면 표시",
        "Description[lt]": "Laikinai rodo darbalaukį perkeldamas langus į šalį",
        "Description[nl]": "Toont tijdelijk het bureaublad door vensters weg te schuiven",
        "Description[nn]": "Viser skrivebordet mellombels, ved å flytta vindauge til sides",
        "Description[pl]": "Tymczasowo odkrywa pulpit, odsuwając okna na bok",
        "Description[pt]": "Revela temporariamente o ecrã, movendo as janelas abertas para fora",
        "Description[pt_BR]": "Mostra temporariamente a área de trabalho afastando as janelas",
        "Description[ru]": "Временно показывает рабочий стол, раздвигая окна",
        "Description[sk]": "Zobrazí pracovnú plochu posunutím okien nabok",
        "Description[sl]": "Začasno prikaži namizje s pomikom oken proč",
        "Description[ta]": "திறந்துள்ள சாளரங்களை திரையின் ஓரங்களுக்கு நகர்த்தி தற்காலிகமாக பணிமேடையைக் காட்டும்",
        "Description[tr]": "Pencereleri uzaklaştırarak masaüstünü geçici olarak gösterir",
        "Description[uk]": "Тимчасово показує стільницю, прибравши вікна",
        "Description[vi]": "Tạm thời hiện bàn làm việc bằng cách di chuyển các cửa sổ đi",
        "Description[x-test]": "xxTemporarily shows the desktop by moving windows awayxx",
        "Description[zh_CN]": "暂时移开窗口以显示桌面",
        "Description[zh_TW]": "將視窗暫時移到旁邊來暫時顯示桌面",
        "EnabledByDefault": true,
        "FormFactors": [
            "desktop"
        ],
        "Icon": "user-desktop",
        "Id": "org.kde.plasma.showdesktop",
        "License": "GPL-2.0+",
        "Name": "Peek at Desktop",
        "Name[ar]": "نظرة على سطح المكتب",
        "Name[az]": "İş masasına nəzər salın",
        "Name[be]": "Аглядзець працоўны стол",
        "Name[bg]": "Поглед върху работния плот",
        "Name[ca@valencia]": "Ullada a l'escriptori",
        "Name[ca]": "Ullada a l'escriptori",
        "Name[cs]": "Nakouknout na pracovní plochu",
        "Name[de]": "Blick auf die Arbeitsfläche",
        "Name[en_GB]": "Peek at Desktop",
        "Name[eo]": "Rigardeti al Labortablo",
        "Name[es]": "Dar un vistazo al escritorio",
        "Name[et]": "Töölaua näitamine",
        "Name[eu]": "Begirada bat mahaigainari",
        "Name[fi]": "Kurkista työpöydälle",
        "Name[fr]": "Coup d’œil sur le bureau",
        "Name[ia]": "Reguarda a Scriptorio",
        "Name[id]": "Lihat Desktop",
        "Name[is]": "Kíkja á skjáborðið",
        "Name[it]": "Dai un'occhiata al desktop",
        "Name[ja]": "デスクトップを覗く",
        "Name[ka]": "სამუშაო მაგიდაზე გაჭვრეტა",
        "Name[ko]": "바탕 화면 엿보기",
        "Name[lt]": "Žvilgsnis į darbalaukį",
        "Name[nl]": "Naar het bureaublad gluren",
        "Name[nn]": "Kikk på skrivebordet",
        "Name[pa]": "ਡੈਸਕਟਾਪ ਉੱਤੇ ਝਾਤੀ",
        "Name[pl]": "Podejrzyj pulpit",
        "Name[pt]": "Espreitar o Ecrã",
        "Name[pt_BR]": "Espiar área de trabalho",
        "Name[ro]": "Trage cu ochiul la birou",
        "Name[ru]": "Быстрый просмотр рабочего стола",
        "Name[sk]": "Nazrieť na pracovnú plochu",
        "Name[sl]": "Pokukaj na namizje",
        "Name[sv]": "Kika på skrivbord",
        "Name[ta]": "பணிமேடையைக் காட்டு",
        "Name[tr]": "Masaüstüne Bak",
        "Name[uk]": "Показати стільницю",
        "Name[vi]": "Ngó qua bàn làm việc",
        "Name[x-test]": "xxPeek at Desktopxx",
        "Name[zh_CN]": "暂时显示桌面",
        "Name[zh_TW]": "看一下桌面",
        "Version": "1.0",
        "Website": "https://kde.org/plasma-desktop"
    },
    "X-Plasma-API": "declarativeappletscript",
    "X-Plasma-MainScript": "ui/main.qml",
    "X-Plasma-Provides": [
        "org.kde.plasma.windowmanagement"
    ]
}
